…
#### 'Create a new factor variable in the dataset with two levels – “weekday” and “weekend” indicating whether a given date is a weekday or weekend day.'  
'df_new' is the dataset with colum 'day' witht the levels – “weekday” and “weekend”.  

#### 'Make a panel plot containing a time series plot of the 5-minute interval (x-axis) and the average number of steps taken, averaged across all weekday days or weekend days (y-axis).'  

lets group the dataset by 'interval' for the above assignment.  

```r
sub_df6 <- df_new %>% group_by(day,interval) %>% summarise(mean_step = mean(steps))
sub_df6
```

```
## # A tibble: 576 x 3
## # Groups:   day [2]
##    day     interval mean_step
##    <chr>      <int>     <dbl>
##  1 weekday        0     2.33 
##  2 weekday        5     0.462
##  3 weekday       10     0.179
##  4 weekday       15     0.205
##  5 weekday       20     0.103
##  6 weekday       25     1.51 
##  7 weekday       30     0.718
##  8 weekday       35     1.18 
##  9 weekday       40     0    
## 10 weekday       45     1.85 
## # ... with 566 more rows
```
…
